{
	"info": {
		"_postman_id": "45b14798-0b1a-421e-8ca7-61bd8d0fb373",
		"name": "Practice lab exam",
		"schema": "https://schema.getpostman.com/json/collection/v2.1.0/collection.json"
	},
	"item": [
		{
			"name": "get all data",
			"request": {
				"method": "GET",
				"header": [],
				"url": {
					"raw": "{{URL}}/emp",
					"host": [
						"{{URL}}"
					],
					"path": [
						"emp"
					]
				}
			},
			"response": []
		},
		{
			"name": "delete",
			"request": {
				"method": "DELETE",
				"header": [],
				"url": {
					"raw": "{{URL}}/emp/5",
					"host": [
						"{{URL}}"
					],
					"path": [
						"emp",
						"5"
					]
				}
			},
			"response": []
		},
		{
			"name": "inset emp",
			"request": {
				"method": "POST",
				"header": [],
				"body": {
					"mode": "raw",
					"raw": "{\r\n\"name\" : \"s\", \r\n\"salary\" : 20000, \r\n\"age\" : 22\r\n}\r\n\r\n\r\n",
					"options": {
						"raw": {
							"language": "json"
						}
					}
				},
				"url": {
					"raw": "{{URL}}/emp",
					"host": [
						"{{URL}}"
					],
					"path": [
						"emp"
					]
				}
			},
			"response": []
		},
		{
			"name": "update emp",
			"request": {
				"method": "PUT",
				"header": [],
				"body": {
					"mode": "raw",
					"raw": "{\r\n\"name\" : \"r\", \r\n\"salary\" : 555, \r\n\"age\" : 1007\r\n}\r\n\r\n\r\n",
					"options": {
						"raw": {
							"language": "json"
						}
					}
				},
				"url": {
					"raw": "{{URL}}/emp/4",
					"host": [
						"{{URL}}"
					],
					"path": [
						"emp",
						"4"
					]
				}
			},
			"response": []
		}
	],
	"event": [
		{
			"listen": "prerequest",
			"script": {
				"type": "text/javascript",
				"exec": [
					""
				]
			}
		},
		{
			"listen": "test",
			"script": {
				"type": "text/javascript",
				"exec": [
					""
				]
			}
		}
	],
	"variable": [
		{
			"key": "URL",
			"value": "http://localhost:4000",
			"type": "string"
		}
	]
}